<?xml version="1.0" encoding="utf-8"?>
<!-- Generator: Adobe Illustrator 16.0.0, SVG Export Plug-In . SVG Version: 6.00 Build 0)  -->
<!DOCTYPE svg PUBLIC "-//W3C//DTD SVG 1.1//EN" "http://www.w3.org/Graphics/SVG/1.1/DTD/svg11.dtd">
<svg version="1.1" id="Слой_2" xmlns="http://www.w3.org/2000/svg" xmlns:xlink="http://www.w3.org/1999/xlink" x="0px" y="0px"
	 width="853px" height="101.113px" viewBox="0 0 853 101.113" enable-background="new 0 0 853 101.113" xml:space="preserve">
<linearGradient id="SVGID_1_" gradientUnits="userSpaceOnUse" x1="2.6631" y1="139.6592" x2="394.6631" y2="139.6592" gradientTransform="matrix(-1 0 0 1 397.3262 0)">
	<stop  offset="0" style="stop-color:#0B4B9F"/>
	<stop  offset="1" style="stop-color:#C1E8E5"/>
</linearGradient>
<path stroke="url(#SVGID_1_)" stroke-width="2" stroke-miterlimit="10" d="M393.663,139.943c-6.388,4.04-21.2,23.368-30.858,23.71
	l-328.492,0.082c-9.66-0.342-24.262-19.964-30.65-24.005v-0.356c6.388-4.04,21.199-23.367,30.858-23.709l328.492-0.082
	c9.659,0.342,24.261,19.964,30.649,24.005V139.943z"/>
<linearGradient id="SVGID_2_" gradientUnits="userSpaceOnUse" x1="2.6631" y1="189.7485" x2="394.6631" y2="189.7485" gradientTransform="matrix(-1 0 0 1 397.3262 0)">
	<stop  offset="0" style="stop-color:#0B4B9F"/>
	<stop  offset="1" style="stop-color:#C1E8E5"/>
</linearGradient>
<path fill="#DE8913" stroke="url(#SVGID_2_)" stroke-width="2" stroke-miterlimit="10" d="M393.663,190.033
	c-6.388,4.04-21.2,23.368-30.858,23.71l-328.492,0.082c-9.66-0.342-24.262-19.964-30.65-24.005v-0.356
	c6.388-4.04,21.199-23.367,30.858-23.709l328.492-0.082c9.659,0.342,24.261,19.964,30.649,24.005V190.033z"/>
<linearGradient id="SVGID_3_" gradientUnits="userSpaceOnUse" x1="2.6631" y1="239.7974" x2="394.6631" y2="239.7974" gradientTransform="matrix(-1 0 0 1 397.3262 0)">
	<stop  offset="0" style="stop-color:#0B4B9F"/>
	<stop  offset="1" style="stop-color:#C1E8E5"/>
</linearGradient>
<path fill="#2E9E32" stroke="url(#SVGID_3_)" stroke-width="2" stroke-miterlimit="10" d="M393.663,240.082
	c-6.388,4.04-21.2,23.368-30.858,23.71l-328.492,0.082c-9.66-0.342-24.262-19.964-30.65-24.005v-0.356
	c6.388-4.04,21.199-23.367,30.858-23.709l328.492-0.082c9.659,0.342,24.261,19.964,30.649,24.005V240.082z"/>
<linearGradient id="SVGID_4_" gradientUnits="userSpaceOnUse" x1="0.5" y1="50.5562" x2="852.5" y2="50.5562">
	<stop  offset="0" style="stop-color:#2571B1"/>
	<stop  offset="0.5" style="stop-color:#C9E8EB"/>
	<stop  offset="1" style="stop-color:#2571B1"/>
</linearGradient>
<path stroke="url(#SVGID_4_)" stroke-width="2" stroke-miterlimit="10" d="M1.5,51.18c13.027,8.237,43.231,47.651,62.929,48.349
	l724.567,0.083C808.695,98.915,838.473,58.9,851.5,50.66v-0.727c-13.027-8.237-43.23-47.651-62.93-48.349L64.002,1.5
	C44.305,2.198,14.527,42.212,1.5,50.453V51.18z"/>
</svg>
